{
  "resourceName": "s399c18fad",
  "policyUUID": "99c18fad",
  "bucketName": "adminreact1d7e410530334e828cf0b7323042fef5",
  "storageAccess": "auth",
  "guestAccess": [],
  "authAccess": [
    "CREATE_AND_UPDATE",
    "READ",
    "DELETE"
  ],
  "triggerFunction": "NONE",
  "groupAccess": {}
}